%YAML 1.1
%TAG !u! tag:unity3d.com,2011:
--- !u!21 &2100000
Material:
  serializedVersion: 6
  m_ObjectHideFlags: 0
  m_CorrespondingSourceObject: {fileID: 0}
  m_PrefabInstance: {fileID: 0}
  m_PrefabAsset: {fileID: 0}
  m_Name: Forest_Shaft
  m_Shader: {fileID: 4800000, guid: 8acf8716cca2d514684b15607a48eb37, type: 3}
  m_ShaderKeywords: 
  m_LightmapFlags: 4
  m_EnableInstancingVariants: 0
  m_DoubleSidedGI: 0
  m_CustomRenderQueue: -1
  stringTagMap: {}
  disabledShaderPasses: []
  m_SavedProperties:
    serializedVersion: 3
    m_TexEnvs:
    - _BumpMap:
        m_Texture: {fileID: 0}
        m_Scale: {x: 1, y: 1}
        m_Offset: {x: 0, y: 0}
    - _Diffuse:
        m_Texture: {fileID: 2800000, guid: e33c76c8aba33435093b859716313cba, type: 3}
        m_Scale: {x: 0.5, y: 0.5}
        m_Offset: {x: 0, y: 0.03}
    m_Floats:
    - _AlphaClip: 0.45
    - _ColourDepth: 16
    - _Cutoff: 0.5
    - _Emission: 2
    - _InnerSwirlSpeed: 0
    - _NormalIntensity: 0
    - _OuterSwirlSpeed: 0
    - _SwirlAmount: 0
    - _VertexDetail: 100000
    - _XScroll: -0.01
    - _YScroll: 0
    m_Colors:
    - _Color: {r: 1, g: 1, b: 1, a: 1}
