%YAML 1.1
%TAG !u! tag:unity3d.com,2011:
--- !u!1 &136496699458632877
GameObject:
  m_ObjectHideFlags: 0
  m_CorrespondingSourceObject: {fileID: 0}
  m_PrefabInstance: {fileID: 0}
  m_PrefabAsset: {fileID: 0}
  serializedVersion: 6
  m_Component:
  - component: {fileID: 136496699458632876}
  m_Layer: 0
  m_Name: Rising Steam (1)
  m_TagString: Untagged
  m_Icon: {fileID: 0}
  m_NavMeshLayer: 0
  m_StaticEditorFlags: 0
  m_IsActive: 1
--- !u!4 &136496699458632876
Transform:
  m_ObjectHideFlags: 0
  m_CorrespondingSourceObject: {fileID: 0}
  m_PrefabInstance: {fileID: 0}
  m_PrefabAsset: {fileID: 0}
  m_GameObject: {fileID: 136496699458632877}
  m_LocalRotation: {x: -0, y: -0.96893966, z: -0, w: -0.24729738}
  m_LocalPosition: {x: -0.020996094, y: -0.061035156, z: 10.150364}
  m_LocalScale: {x: 2.0715, y: 1.5713341, z: 1}
  m_Children:
  - {fileID: 4944490358954296860}
  - {fileID: 4944490358795631818}
  m_Father: {fileID: 0}
  m_RootOrder: 0
  m_LocalEulerAnglesHint: {x: 0, y: -208.635, z: 0}
--- !u!1001 &136496698963974096
PrefabInstance:
  m_ObjectHideFlags: 0
  serializedVersion: 2
  m_Modification:
    m_TransformParent: {fileID: 136496699458632876}
    m_Modifications:
    - target: {fileID: -4216859302048453862, guid: 2b374f82b8b674ae59dcebaaf2425d81,
        type: 3}
      propertyPath: m_LocalPosition.x
      value: 0.15002441
      objectReference: {fileID: 0}
    - target: {fileID: -4216859302048453862, guid: 2b374f82b8b674ae59dcebaaf2425d81,
        type: 3}
      propertyPath: m_LocalPosition.y
      value: 0
      objectReference: {fileID: 0}
    - target: {fileID: -4216859302048453862, guid: 2b374f82b8b674ae59dcebaaf2425d81,
        type: 3}
      propertyPath: m_LocalPosition.z
      value: 0.121500015
      objectReference: {fileID: 0}
    - target: {fileID: -4216859302048453862, guid: 2b374f82b8b674ae59dcebaaf2425d81,
        type: 3}
      propertyPath: m_LocalRotation.x
      value: 0.6413105
      objectReference: {fileID: 0}
    - target: {fileID: -4216859302048453862, guid: 2b374f82b8b674ae59dcebaaf2425d81,
        type: 3}
      propertyPath: m_LocalRotation.y
      value: 0.6413106
      objectReference: {fileID: 0}
    - target: {fileID: -4216859302048453862, guid: 2b374f82b8b674ae59dcebaaf2425d81,
        type: 3}
      propertyPath: m_LocalRotation.z
      value: 0.2978604
      objectReference: {fileID: 0}
    - target: {fileID: -4216859302048453862, guid: 2b374f82b8b674ae59dcebaaf2425d81,
        type: 3}
      propertyPath: m_LocalRotation.w
      value: 0.29786044
      objectReference: {fileID: 0}
    - target: {fileID: -4216859302048453862, guid: 2b374f82b8b674ae59dcebaaf2425d81,
        type: 3}
      propertyPath: m_RootOrder
      value: 1
      objectReference: {fileID: 0}
    - target: {fileID: -4216859302048453862, guid: 2b374f82b8b674ae59dcebaaf2425d81,
        type: 3}
      propertyPath: m_LocalEulerAnglesHint.x
      value: 0
      objectReference: {fileID: 0}
    - target: {fileID: -4216859302048453862, guid: 2b374f82b8b674ae59dcebaaf2425d81,
        type: 3}
      propertyPath: m_LocalEulerAnglesHint.y
      value: 130.17401
      objectReference: {fileID: 0}
    - target: {fileID: -4216859302048453862, guid: 2b374f82b8b674ae59dcebaaf2425d81,
        type: 3}
      propertyPath: m_LocalEulerAnglesHint.z
      value: 90.00001
      objectReference: {fileID: 0}
    - target: {fileID: -4216859302048453862, guid: 2b374f82b8b674ae59dcebaaf2425d81,
        type: 3}
      propertyPath: m_LocalScale.x
      value: -28.677479
      objectReference: {fileID: 0}
    - target: {fileID: -4216859302048453862, guid: 2b374f82b8b674ae59dcebaaf2425d81,
        type: 3}
      propertyPath: m_LocalScale.y
      value: -71.904945
      objectReference: {fileID: 0}
    - target: {fileID: -4216859302048453862, guid: 2b374f82b8b674ae59dcebaaf2425d81,
        type: 3}
      propertyPath: m_LocalScale.z
      value: -31.72512
      objectReference: {fileID: 0}
    - target: {fileID: -1504981713932161579, guid: 2b374f82b8b674ae59dcebaaf2425d81,
        type: 3}
      propertyPath: m_Materials.Array.data[0]
      value: 
      objectReference: {fileID: 2100000, guid: 6358af0389b034000bad30c99b5bedd4, type: 2}
    - target: {fileID: -927199367670048503, guid: 2b374f82b8b674ae59dcebaaf2425d81,
        type: 3}
      propertyPath: m_Name
      value: Rising Steam (10)
      objectReference: {fileID: 0}
    m_RemovedComponents: []
  m_SourcePrefab: {fileID: 100100000, guid: 2b374f82b8b674ae59dcebaaf2425d81, type: 3}
--- !u!4 &4944490358795631818 stripped
Transform:
  m_CorrespondingSourceObject: {fileID: -4216859302048453862, guid: 2b374f82b8b674ae59dcebaaf2425d81,
    type: 3}
  m_PrefabInstance: {fileID: 136496698963974096}
  m_PrefabAsset: {fileID: 0}
--- !u!1001 &136496699140549894
PrefabInstance:
  m_ObjectHideFlags: 0
  serializedVersion: 2
  m_Modification:
    m_TransformParent: {fileID: 136496699458632876}
    m_Modifications:
    - target: {fileID: -4216859302048453862, guid: 2b374f82b8b674ae59dcebaaf2425d81,
        type: 3}
      propertyPath: m_LocalPosition.x
      value: -0.14990234
      objectReference: {fileID: 0}
    - target: {fileID: -4216859302048453862, guid: 2b374f82b8b674ae59dcebaaf2425d81,
        type: 3}
      propertyPath: m_LocalPosition.y
      value: 0
      objectReference: {fileID: 0}
    - target: {fileID: -4216859302048453862, guid: 2b374f82b8b674ae59dcebaaf2425d81,
        type: 3}
      propertyPath: m_LocalPosition.z
      value: -0.121500015
      objectReference: {fileID: 0}
    - target: {fileID: -4216859302048453862, guid: 2b374f82b8b674ae59dcebaaf2425d81,
        type: 3}
      propertyPath: m_LocalRotation.x
      value: 0.7071067
      objectReference: {fileID: 0}
    - target: {fileID: -4216859302048453862, guid: 2b374f82b8b674ae59dcebaaf2425d81,
        type: 3}
      propertyPath: m_LocalRotation.y
      value: 0.7071068
      objectReference: {fileID: 0}
    - target: {fileID: -4216859302048453862, guid: 2b374f82b8b674ae59dcebaaf2425d81,
        type: 3}
      propertyPath: m_LocalRotation.z
      value: 0.00000005338508
      objectReference: {fileID: 0}
    - target: {fileID: -4216859302048453862, guid: 2b374f82b8b674ae59dcebaaf2425d81,
        type: 3}
      propertyPath: m_LocalRotation.w
      value: 0.000000053385072
      objectReference: {fileID: 0}
    - target: {fileID: -4216859302048453862, guid: 2b374f82b8b674ae59dcebaaf2425d81,
        type: 3}
      propertyPath: m_RootOrder
      value: 0
      objectReference: {fileID: 0}
    - target: {fileID: -4216859302048453862, guid: 2b374f82b8b674ae59dcebaaf2425d81,
        type: 3}
      propertyPath: m_LocalEulerAnglesHint.x
      value: 0
      objectReference: {fileID: 0}
    - target: {fileID: -4216859302048453862, guid: 2b374f82b8b674ae59dcebaaf2425d81,
        type: 3}
      propertyPath: m_LocalEulerAnglesHint.y
      value: 0
      objectReference: {fileID: 0}
    - target: {fileID: -4216859302048453862, guid: 2b374f82b8b674ae59dcebaaf2425d81,
        type: 3}
      propertyPath: m_LocalEulerAnglesHint.z
      value: 0
      objectReference: {fileID: 0}
    - target: {fileID: -4216859302048453862, guid: 2b374f82b8b674ae59dcebaaf2425d81,
        type: 3}
      propertyPath: m_LocalScale.x
      value: -28.677479
      objectReference: {fileID: 0}
    - target: {fileID: -4216859302048453862, guid: 2b374f82b8b674ae59dcebaaf2425d81,
        type: 3}
      propertyPath: m_LocalScale.y
      value: -31.725122
      objectReference: {fileID: 0}
    - target: {fileID: -4216859302048453862, guid: 2b374f82b8b674ae59dcebaaf2425d81,
        type: 3}
      propertyPath: m_LocalScale.z
      value: -71.90494
      objectReference: {fileID: 0}
    - target: {fileID: -1504981713932161579, guid: 2b374f82b8b674ae59dcebaaf2425d81,
        type: 3}
      propertyPath: m_Materials.Array.data[0]
      value: 
      objectReference: {fileID: 2100000, guid: 6358af0389b034000bad30c99b5bedd4, type: 2}
    - target: {fileID: -927199367670048503, guid: 2b374f82b8b674ae59dcebaaf2425d81,
        type: 3}
      propertyPath: m_Name
      value: Rising Steam (11)
      objectReference: {fileID: 0}
    m_RemovedComponents: []
  m_SourcePrefab: {fileID: 100100000, guid: 2b374f82b8b674ae59dcebaaf2425d81, type: 3}
--- !u!4 &4944490358954296860 stripped
Transform:
  m_CorrespondingSourceObject: {fileID: -4216859302048453862, guid: 2b374f82b8b674ae59dcebaaf2425d81,
    type: 3}
  m_PrefabInstance: {fileID: 136496699140549894}
  m_PrefabAsset: {fileID: 0}
