%YAML 1.1
%TAG !u! tag:unity3d.com,2011:
--- !u!21 &2100000
Material:
  serializedVersion: 6
  m_ObjectHideFlags: 0
  m_CorrespondingSourceObject: {fileID: 0}
  m_PrefabInstance: {fileID: 0}
  m_PrefabAsset: {fileID: 0}
  m_Name: Ripples 1
  m_Shader: {fileID: 4800000, guid: 7c5ef7722c5d448c3a96975ed66e552e, type: 3}
  m_ShaderKeywords: 
  m_LightmapFlags: 4
  m_EnableInstancingVariants: 0
  m_DoubleSidedGI: 0
  m_CustomRenderQueue: -1
  stringTagMap: {}
  disabledShaderPasses: []
  m_SavedProperties:
    serializedVersion: 3
    m_TexEnvs:
    - _MainTex:
        m_Texture: {fileID: 0}
        m_Scale: {x: 1, y: 1}
        m_Offset: {x: 0, y: 0}
    - _TextureSample1:
        m_Texture: {fileID: 2800000, guid: 684c5a668d34d4401b1a2c53ff9faaaa, type: 3}
        m_Scale: {x: -1, y: -1}
        m_Offset: {x: 0, y: 0}
    - _TextureSample2:
        m_Texture: {fileID: 2800000, guid: 106888926768d3442839809b2773fb4b, type: 3}
        m_Scale: {x: 1, y: 1}
        m_Offset: {x: 0, y: 0}
    - _texcoord:
        m_Texture: {fileID: 0}
        m_Scale: {x: 1, y: 1}
        m_Offset: {x: 0, y: 0}
    m_Floats:
    - _AlphaScale: 1.08
    - _AlphaScale1: 0.2529412
    - _DistortionIntensity: 0.031
    - _DistortionScale: 5
    - _Emission: 1.67
    - _InvFade: 1
    - _NoiseGenScale: 0.23
    - _WaterScale: 0.35
    - __dirty: 1
    m_Colors:
    - _Color: {r: 1, g: 1, b: 1, a: 1}
    - _DistortionScroll: {r: 0.1, g: 0, b: 0, a: 0}
    - _DistortionScroll1: {r: 0.1, g: 0, b: 0, a: 0}
    - _TintColor: {r: 0.5, g: 0.5, b: 0.5, a: 0.5}
    - _WaterScroll: {r: -0.05, g: 0, b: 0, a: 0}
    - _WaterTint: {r: 0.065592736, g: 0.19084665, b: 0.20754719, a: 1}
