%YAML 1.1
%TAG !u! tag:unity3d.com,2011:
--- !u!21 &2100000
Material:
  serializedVersion: 6
  m_ObjectHideFlags: 0
  m_CorrespondingSourceObject: {fileID: 0}
  m_PrefabInstance: {fileID: 0}
  m_PrefabAsset: {fileID: 0}
  m_Name: Saveroom_Remastered_Water
  m_Shader: {fileID: 4800000, guid: 4421ff09dfe8646cc85fbcf5988a18ce, type: 3}
  m_ShaderKeywords: 
  m_LightmapFlags: 4
  m_EnableInstancingVariants: 0
  m_DoubleSidedGI: 0
  m_CustomRenderQueue: 3000
  stringTagMap: {}
  disabledShaderPasses: []
  m_SavedProperties:
    serializedVersion: 3
    m_TexEnvs:
    - _MainTex:
        m_Texture: {fileID: 0}
        m_Scale: {x: 1, y: 1}
        m_Offset: {x: 0, y: 0}
    - _TextureSample1:
        m_Texture: {fileID: 2800000, guid: 79cb07eba6b9b4bfcaa45a2dffcb20df, type: 3}
        m_Scale: {x: 1, y: 1}
        m_Offset: {x: 0, y: 0}
    - _TextureSample2:
        m_Texture: {fileID: 2800000, guid: 84c97261bdfd742b29d807100a332a0e, type: 3}
        m_Scale: {x: 1, y: 1}
        m_Offset: {x: 0, y: 0}
    - _texcoord:
        m_Texture: {fileID: 0}
        m_Scale: {x: 1, y: 1}
        m_Offset: {x: 0, y: 0}
    m_Floats:
    - _AlphaScale: 0.33
    - _AlphaScale1: 0.2529412
    - _DistortionIntensity: 0.02
    - _DistortionScale: 5
    - _Emission: 1.5
    - _InvFade: 1
    - _NoiseGenScale: 5
    - _WaterScale: 10
    - __dirty: 1
    m_Colors:
    - _Color: {r: 1, g: 1, b: 1, a: 1}
    - _DistortionScroll: {r: 0.1, g: 0, b: 0, a: 0}
    - _DistortionScroll1: {r: 0.1, g: 0, b: 0, a: 0}
    - _TintColor: {r: 0.5, g: 0.5, b: 0.5, a: 0.5}
    - _WaterScroll: {r: 0, g: -0.04, b: 0, a: 0}
    - _WaterTint: {r: 0, g: 0.9166665, b: 1, a: 1}
