%YAML 1.1
%TAG !u! tag:unity3d.com,2011:
--- !u!21 &2100000
Material:
  serializedVersion: 6
  m_ObjectHideFlags: 0
  m_CorrespondingSourceObject: {fileID: 0}
  m_PrefabInstance: {fileID: 0}
  m_PrefabAsset: {fileID: 0}
  m_Name: Saveroom_Remastered_Caustics
  m_Shader: {fileID: 4800000, guid: 4421ff09dfe8646cc85fbcf5988a18ce, type: 3}
  m_ShaderKeywords: 
  m_LightmapFlags: 4
  m_EnableInstancingVariants: 0
  m_DoubleSidedGI: 0
  m_CustomRenderQueue: 3000
  stringTagMap: {}
  disabledShaderPasses: []
  m_SavedProperties:
    serializedVersion: 3
    m_TexEnvs:
    - _TextureSample0:
        m_Texture: {fileID: 0}
        m_Scale: {x: 1, y: 1}
        m_Offset: {x: 0, y: 0}
    - _TextureSample1:
        m_Texture: {fileID: 2800000, guid: 12e27a959fc7c4b46b50bbdd305642ef, type: 3}
        m_Scale: {x: 1, y: 1}
        m_Offset: {x: 0, y: 0}
    - _TextureSample2:
        m_Texture: {fileID: 2800000, guid: 84c97261bdfd742b29d807100a332a0e, type: 3}
        m_Scale: {x: 1, y: 1}
        m_Offset: {x: 0, y: 0}
    - _TextureSample3:
        m_Texture: {fileID: 2800000, guid: 106888926768d3442839809b2773fb4b, type: 3}
        m_Scale: {x: 1, y: 1}
        m_Offset: {x: 0, y: 0}
    - _texcoord:
        m_Texture: {fileID: 0}
        m_Scale: {x: 1, y: 1}
        m_Offset: {x: 0, y: 0}
    m_Floats:
    - _AlphaScale: 0.23
    - _AlphaScale1: 1.603174
    - _DistortionIntensity: 0.032
    - _DistortionScale: 5
    - _Emission: 5
    - _Float0: 5
    - _Float1: 0.7942079
    - _Float2: 0.05684015
    - _Float3: 0.37914386
    - _Float4: 5
    - _NoiseGenScale: 5
    - _WaterScale: 10
    - _WaterScale1: 1.6031739
    m_Colors:
    - _Color0: {r: 0.4357423, g: 0.6037736, b: 0.479816, a: 1}
    - _DistortionScroll: {r: 0.05, g: 0, b: 0, a: 0}
    - _DistortionScroll1: {r: 0.03, g: 0, b: 0, a: 0}
    - _Vector0: {r: 0, g: 0, b: 0, a: 0}
    - _Vector1: {r: 0.1, g: 0, b: 0, a: 0}
    - _WaterScroll: {r: 0.04, g: 0, b: 0, a: 0}
    - _WaterTint: {r: 0, g: 0.3549391, b: 0.38679248, a: 1}
