%YAML 1.1
%TAG !u! tag:unity3d.com,2011:
--- !u!1001 &6052692165221449522
PrefabInstance:
  m_ObjectHideFlags: 0
  serializedVersion: 2
  m_Modification:
    m_TransformParent: {fileID: 0}
    m_Modifications:
    - target: {fileID: -4216859302048453862, guid: 95379173a454c418285a38a0b32d07bb,
        type: 3}
      propertyPath: m_LocalPosition.x
      value: -125.8498
      objectReference: {fileID: 0}
    - target: {fileID: -4216859302048453862, guid: 95379173a454c418285a38a0b32d07bb,
        type: 3}
      propertyPath: m_LocalPosition.y
      value: 12.453532
      objectReference: {fileID: 0}
    - target: {fileID: -4216859302048453862, guid: 95379173a454c418285a38a0b32d07bb,
        type: 3}
      propertyPath: m_LocalPosition.z
      value: -81.84932
      objectReference: {fileID: 0}
    - target: {fileID: -4216859302048453862, guid: 95379173a454c418285a38a0b32d07bb,
        type: 3}
      propertyPath: m_LocalRotation.x
      value: -0.7071068
      objectReference: {fileID: 0}
    - target: {fileID: -4216859302048453862, guid: 95379173a454c418285a38a0b32d07bb,
        type: 3}
      propertyPath: m_LocalRotation.y
      value: -0.000000061817246
      objectReference: {fileID: 0}
    - target: {fileID: -4216859302048453862, guid: 95379173a454c418285a38a0b32d07bb,
        type: 3}
      propertyPath: m_LocalRotation.z
      value: -0.00000006181725
      objectReference: {fileID: 0}
    - target: {fileID: -4216859302048453862, guid: 95379173a454c418285a38a0b32d07bb,
        type: 3}
      propertyPath: m_LocalRotation.w
      value: 0.7071067
      objectReference: {fileID: 0}
    - target: {fileID: -4216859302048453862, guid: 95379173a454c418285a38a0b32d07bb,
        type: 3}
      propertyPath: m_RootOrder
      value: 0
      objectReference: {fileID: 0}
    - target: {fileID: -4216859302048453862, guid: 95379173a454c418285a38a0b32d07bb,
        type: 3}
      propertyPath: m_LocalEulerAnglesHint.x
      value: 0
      objectReference: {fileID: 0}
    - target: {fileID: -4216859302048453862, guid: 95379173a454c418285a38a0b32d07bb,
        type: 3}
      propertyPath: m_LocalEulerAnglesHint.y
      value: 0
      objectReference: {fileID: 0}
    - target: {fileID: -4216859302048453862, guid: 95379173a454c418285a38a0b32d07bb,
        type: 3}
      propertyPath: m_LocalEulerAnglesHint.z
      value: 0
      objectReference: {fileID: 0}
    - target: {fileID: -1504981713932161579, guid: 95379173a454c418285a38a0b32d07bb,
        type: 3}
      propertyPath: m_Materials.Array.data[0]
      value: 
      objectReference: {fileID: 2100000, guid: dfbadaf8c40350449b3ccf93cfc33e56, type: 2}
    - target: {fileID: -927199367670048503, guid: 95379173a454c418285a38a0b32d07bb,
        type: 3}
      propertyPath: m_Name
      value: Keyring
      objectReference: {fileID: 0}
    m_RemovedComponents: []
  m_SourcePrefab: {fileID: 100100000, guid: 95379173a454c418285a38a0b32d07bb, type: 3}
