%YAML 1.1
%TAG !u! tag:unity3d.com,2011:
--- !u!1 &6025297188398534558
GameObject:
  m_ObjectHideFlags: 0
  m_CorrespondingSourceObject: {fileID: 0}
  m_PrefabInstance: {fileID: 0}
  m_PrefabAsset: {fileID: 0}
  serializedVersion: 6
  m_Component:
  - component: {fileID: 6902929521615315686}
  - component: {fileID: 5199022319744387241}
  m_Layer: 0
  m_Name: Dragon Slayer Red
  m_TagString: Untagged
  m_Icon: {fileID: 0}
  m_NavMeshLayer: 0
  m_StaticEditorFlags: 0
  m_IsActive: 1
--- !u!4 &6902929521615315686
Transform:
  m_ObjectHideFlags: 0
  m_CorrespondingSourceObject: {fileID: 0}
  m_PrefabInstance: {fileID: 0}
  m_PrefabAsset: {fileID: 0}
  m_GameObject: {fileID: 6025297188398534558}
  m_LocalRotation: {x: 0, y: 0, z: 0, w: 1}
  m_LocalPosition: {x: 21.442, y: -0.285, z: -0.531}
  m_LocalScale: {x: 1, y: 1, z: 1}
  m_Children:
  - {fileID: 2918690549962128037}
  m_Father: {fileID: 0}
  m_RootOrder: 0
  m_LocalEulerAnglesHint: {x: 0, y: 0, z: 0}
--- !u!114 &5199022319744387241
MonoBehaviour:
  m_ObjectHideFlags: 0
  m_CorrespondingSourceObject: {fileID: 0}
  m_PrefabInstance: {fileID: 0}
  m_PrefabAsset: {fileID: 0}
  m_GameObject: {fileID: 6025297188398534558}
  m_Enabled: 1
  m_EditorHideFlags: 0
  m_Script: {fileID: 11500000, guid: 8b7f782d20050f84ba0a271b517b1fbf, type: 3}
  m_Name: 
  m_EditorClassIdentifier: 
  _rotationSpeed: 50
--- !u!1001 &2907558705279206394
PrefabInstance:
  m_ObjectHideFlags: 0
  serializedVersion: 2
  m_Modification:
    m_TransformParent: {fileID: 2918690549962128037}
    m_Modifications:
    - target: {fileID: -4216859302048453862, guid: 249a9ff7f35854ceca72694e4ee76b21,
        type: 3}
      propertyPath: m_LocalPosition.x
      value: 0
      objectReference: {fileID: 0}
    - target: {fileID: -4216859302048453862, guid: 249a9ff7f35854ceca72694e4ee76b21,
        type: 3}
      propertyPath: m_LocalPosition.y
      value: 0
      objectReference: {fileID: 0}
    - target: {fileID: -4216859302048453862, guid: 249a9ff7f35854ceca72694e4ee76b21,
        type: 3}
      propertyPath: m_LocalPosition.z
      value: -0.00644
      objectReference: {fileID: 0}
    - target: {fileID: -4216859302048453862, guid: 249a9ff7f35854ceca72694e4ee76b21,
        type: 3}
      propertyPath: m_LocalRotation.x
      value: -0
      objectReference: {fileID: 0}
    - target: {fileID: -4216859302048453862, guid: 249a9ff7f35854ceca72694e4ee76b21,
        type: 3}
      propertyPath: m_LocalRotation.y
      value: -0
      objectReference: {fileID: 0}
    - target: {fileID: -4216859302048453862, guid: 249a9ff7f35854ceca72694e4ee76b21,
        type: 3}
      propertyPath: m_LocalRotation.z
      value: -0
      objectReference: {fileID: 0}
    - target: {fileID: -4216859302048453862, guid: 249a9ff7f35854ceca72694e4ee76b21,
        type: 3}
      propertyPath: m_LocalRotation.w
      value: 1
      objectReference: {fileID: 0}
    - target: {fileID: -4216859302048453862, guid: 249a9ff7f35854ceca72694e4ee76b21,
        type: 3}
      propertyPath: m_RootOrder
      value: 0
      objectReference: {fileID: 0}
    - target: {fileID: -4216859302048453862, guid: 249a9ff7f35854ceca72694e4ee76b21,
        type: 3}
      propertyPath: m_LocalEulerAnglesHint.x
      value: 0
      objectReference: {fileID: 0}
    - target: {fileID: -4216859302048453862, guid: 249a9ff7f35854ceca72694e4ee76b21,
        type: 3}
      propertyPath: m_LocalEulerAnglesHint.y
      value: 0
      objectReference: {fileID: 0}
    - target: {fileID: -4216859302048453862, guid: 249a9ff7f35854ceca72694e4ee76b21,
        type: 3}
      propertyPath: m_LocalEulerAnglesHint.z
      value: 0
      objectReference: {fileID: 0}
    - target: {fileID: -4216859302048453862, guid: 249a9ff7f35854ceca72694e4ee76b21,
        type: 3}
      propertyPath: m_LocalScale.x
      value: 1
      objectReference: {fileID: 0}
    - target: {fileID: -4216859302048453862, guid: 249a9ff7f35854ceca72694e4ee76b21,
        type: 3}
      propertyPath: m_LocalScale.y
      value: 1
      objectReference: {fileID: 0}
    - target: {fileID: -4216859302048453862, guid: 249a9ff7f35854ceca72694e4ee76b21,
        type: 3}
      propertyPath: m_LocalScale.z
      value: 0
      objectReference: {fileID: 0}
    - target: {fileID: -1504981713932161579, guid: 249a9ff7f35854ceca72694e4ee76b21,
        type: 3}
      propertyPath: m_Materials.Array.data[0]
      value: 
      objectReference: {fileID: 2100000, guid: 2c5eccda0143040baa609796c6f690a3, type: 2}
    - target: {fileID: -927199367670048503, guid: 249a9ff7f35854ceca72694e4ee76b21,
        type: 3}
      propertyPath: m_Name
      value: Dragon Slayer (1)
      objectReference: {fileID: 0}
    m_RemovedComponents: []
  m_SourcePrefab: {fileID: 100100000, guid: 249a9ff7f35854ceca72694e4ee76b21, type: 3}
--- !u!1001 &7925193337572790719
PrefabInstance:
  m_ObjectHideFlags: 0
  serializedVersion: 2
  m_Modification:
    m_TransformParent: {fileID: 6902929521615315686}
    m_Modifications:
    - target: {fileID: -4216859302048453862, guid: 249a9ff7f35854ceca72694e4ee76b21,
        type: 3}
      propertyPath: m_LocalPosition.x
      value: 0
      objectReference: {fileID: 0}
    - target: {fileID: -4216859302048453862, guid: 249a9ff7f35854ceca72694e4ee76b21,
        type: 3}
      propertyPath: m_LocalPosition.y
      value: 0
      objectReference: {fileID: 0}
    - target: {fileID: -4216859302048453862, guid: 249a9ff7f35854ceca72694e4ee76b21,
        type: 3}
      propertyPath: m_LocalPosition.z
      value: 0
      objectReference: {fileID: 0}
    - target: {fileID: -4216859302048453862, guid: 249a9ff7f35854ceca72694e4ee76b21,
        type: 3}
      propertyPath: m_LocalRotation.x
      value: -0.7071068
      objectReference: {fileID: 0}
    - target: {fileID: -4216859302048453862, guid: 249a9ff7f35854ceca72694e4ee76b21,
        type: 3}
      propertyPath: m_LocalRotation.y
      value: -0
      objectReference: {fileID: 0}
    - target: {fileID: -4216859302048453862, guid: 249a9ff7f35854ceca72694e4ee76b21,
        type: 3}
      propertyPath: m_LocalRotation.z
      value: -0
      objectReference: {fileID: 0}
    - target: {fileID: -4216859302048453862, guid: 249a9ff7f35854ceca72694e4ee76b21,
        type: 3}
      propertyPath: m_LocalRotation.w
      value: 0.7071067
      objectReference: {fileID: 0}
    - target: {fileID: -4216859302048453862, guid: 249a9ff7f35854ceca72694e4ee76b21,
        type: 3}
      propertyPath: m_RootOrder
      value: 0
      objectReference: {fileID: 0}
    - target: {fileID: -4216859302048453862, guid: 249a9ff7f35854ceca72694e4ee76b21,
        type: 3}
      propertyPath: m_LocalEulerAnglesHint.x
      value: 0
      objectReference: {fileID: 0}
    - target: {fileID: -4216859302048453862, guid: 249a9ff7f35854ceca72694e4ee76b21,
        type: 3}
      propertyPath: m_LocalEulerAnglesHint.y
      value: 0
      objectReference: {fileID: 0}
    - target: {fileID: -4216859302048453862, guid: 249a9ff7f35854ceca72694e4ee76b21,
        type: 3}
      propertyPath: m_LocalEulerAnglesHint.z
      value: 0
      objectReference: {fileID: 0}
    - target: {fileID: -4216859302048453862, guid: 249a9ff7f35854ceca72694e4ee76b21,
        type: 3}
      propertyPath: m_LocalScale.x
      value: 75
      objectReference: {fileID: 0}
    - target: {fileID: -4216859302048453862, guid: 249a9ff7f35854ceca72694e4ee76b21,
        type: 3}
      propertyPath: m_LocalScale.y
      value: 75
      objectReference: {fileID: 0}
    - target: {fileID: -4216859302048453862, guid: 249a9ff7f35854ceca72694e4ee76b21,
        type: 3}
      propertyPath: m_LocalScale.z
      value: 75
      objectReference: {fileID: 0}
    - target: {fileID: -1504981713932161579, guid: 249a9ff7f35854ceca72694e4ee76b21,
        type: 3}
      propertyPath: m_Materials.Array.data[0]
      value: 
      objectReference: {fileID: 2100000, guid: ae477ffa4cc094ebf9d65cd3edabbfa2, type: 2}
    - target: {fileID: -927199367670048503, guid: 249a9ff7f35854ceca72694e4ee76b21,
        type: 3}
      propertyPath: m_Name
      value: Dragon Slayer
      objectReference: {fileID: 0}
    m_RemovedComponents: []
  m_SourcePrefab: {fileID: 100100000, guid: 249a9ff7f35854ceca72694e4ee76b21, type: 3}
--- !u!4 &2918690549962128037 stripped
Transform:
  m_CorrespondingSourceObject: {fileID: -4216859302048453862, guid: 249a9ff7f35854ceca72694e4ee76b21,
    type: 3}
  m_PrefabInstance: {fileID: 7925193337572790719}
  m_PrefabAsset: {fileID: 0}
