%YAML 1.1
%TAG !u! tag:unity3d.com,2011:
--- !u!1 &2321201375495409370
GameObject:
  m_ObjectHideFlags: 0
  m_CorrespondingSourceObject: {fileID: 0}
  m_PrefabInstance: {fileID: 0}
  m_PrefabAsset: {fileID: 0}
  serializedVersion: 6
  m_Component:
  - component: {fileID: 6985989849858463}
  - component: {fileID: 1713379868900086357}
  m_Layer: 0
  m_Name: Khopesh
  m_TagString: Untagged
  m_Icon: {fileID: 0}
  m_NavMeshLayer: 0
  m_StaticEditorFlags: 0
  m_IsActive: 1
--- !u!4 &6985989849858463
Transform:
  m_ObjectHideFlags: 0
  m_CorrespondingSourceObject: {fileID: 0}
  m_PrefabInstance: {fileID: 0}
  m_PrefabAsset: {fileID: 0}
  m_GameObject: {fileID: 2321201375495409370}
  m_LocalRotation: {x: 0, y: 0, z: 0, w: 1}
  m_LocalPosition: {x: 35.99359, y: -0.5230713, z: -0.65556335}
  m_LocalScale: {x: 1.1741, y: 1.1741, z: 1.1741}
  m_Children:
  - {fileID: 7710638526130617347}
  m_Father: {fileID: 0}
  m_RootOrder: 0
  m_LocalEulerAnglesHint: {x: 0, y: 0, z: 0}
--- !u!114 &1713379868900086357
MonoBehaviour:
  m_ObjectHideFlags: 0
  m_CorrespondingSourceObject: {fileID: 0}
  m_PrefabInstance: {fileID: 0}
  m_PrefabAsset: {fileID: 0}
  m_GameObject: {fileID: 2321201375495409370}
  m_Enabled: 1
  m_EditorHideFlags: 0
  m_Script: {fileID: 11500000, guid: 8b7f782d20050f84ba0a271b517b1fbf, type: 3}
  m_Name: 
  m_EditorClassIdentifier: 
  _rotationSpeed: 50
--- !u!1001 &3349275341430282009
PrefabInstance:
  m_ObjectHideFlags: 0
  serializedVersion: 2
  m_Modification:
    m_TransformParent: {fileID: 6985989849858463}
    m_Modifications:
    - target: {fileID: -4216859302048453862, guid: 013845146c1134d83b5917f28d4cbbe5,
        type: 3}
      propertyPath: m_LocalPosition.x
      value: 0
      objectReference: {fileID: 0}
    - target: {fileID: -4216859302048453862, guid: 013845146c1134d83b5917f28d4cbbe5,
        type: 3}
      propertyPath: m_LocalPosition.y
      value: 0
      objectReference: {fileID: 0}
    - target: {fileID: -4216859302048453862, guid: 013845146c1134d83b5917f28d4cbbe5,
        type: 3}
      propertyPath: m_LocalPosition.z
      value: 0
      objectReference: {fileID: 0}
    - target: {fileID: -4216859302048453862, guid: 013845146c1134d83b5917f28d4cbbe5,
        type: 3}
      propertyPath: m_LocalRotation.x
      value: -0.7071068
      objectReference: {fileID: 0}
    - target: {fileID: -4216859302048453862, guid: 013845146c1134d83b5917f28d4cbbe5,
        type: 3}
      propertyPath: m_LocalRotation.y
      value: -0
      objectReference: {fileID: 0}
    - target: {fileID: -4216859302048453862, guid: 013845146c1134d83b5917f28d4cbbe5,
        type: 3}
      propertyPath: m_LocalRotation.z
      value: -0
      objectReference: {fileID: 0}
    - target: {fileID: -4216859302048453862, guid: 013845146c1134d83b5917f28d4cbbe5,
        type: 3}
      propertyPath: m_LocalRotation.w
      value: 0.7071067
      objectReference: {fileID: 0}
    - target: {fileID: -4216859302048453862, guid: 013845146c1134d83b5917f28d4cbbe5,
        type: 3}
      propertyPath: m_RootOrder
      value: 0
      objectReference: {fileID: 0}
    - target: {fileID: -4216859302048453862, guid: 013845146c1134d83b5917f28d4cbbe5,
        type: 3}
      propertyPath: m_LocalEulerAnglesHint.x
      value: 0
      objectReference: {fileID: 0}
    - target: {fileID: -4216859302048453862, guid: 013845146c1134d83b5917f28d4cbbe5,
        type: 3}
      propertyPath: m_LocalEulerAnglesHint.y
      value: 0
      objectReference: {fileID: 0}
    - target: {fileID: -4216859302048453862, guid: 013845146c1134d83b5917f28d4cbbe5,
        type: 3}
      propertyPath: m_LocalEulerAnglesHint.z
      value: 0
      objectReference: {fileID: 0}
    - target: {fileID: -4216859302048453862, guid: 013845146c1134d83b5917f28d4cbbe5,
        type: 3}
      propertyPath: m_LocalScale.x
      value: 50
      objectReference: {fileID: 0}
    - target: {fileID: -4216859302048453862, guid: 013845146c1134d83b5917f28d4cbbe5,
        type: 3}
      propertyPath: m_LocalScale.y
      value: 50
      objectReference: {fileID: 0}
    - target: {fileID: -4216859302048453862, guid: 013845146c1134d83b5917f28d4cbbe5,
        type: 3}
      propertyPath: m_LocalScale.z
      value: 50
      objectReference: {fileID: 0}
    - target: {fileID: -1504981713932161579, guid: 013845146c1134d83b5917f28d4cbbe5,
        type: 3}
      propertyPath: m_Materials.Array.data[0]
      value: 
      objectReference: {fileID: 2100000, guid: 8633cc214203447ef8100197ad4bf0e5, type: 2}
    - target: {fileID: -927199367670048503, guid: 013845146c1134d83b5917f28d4cbbe5,
        type: 3}
      propertyPath: m_Name
      value: Khopesh
      objectReference: {fileID: 0}
    m_RemovedComponents: []
  m_SourcePrefab: {fileID: 100100000, guid: 013845146c1134d83b5917f28d4cbbe5, type: 3}
--- !u!4 &7710638526130617347 stripped
Transform:
  m_CorrespondingSourceObject: {fileID: -4216859302048453862, guid: 013845146c1134d83b5917f28d4cbbe5,
    type: 3}
  m_PrefabInstance: {fileID: 3349275341430282009}
  m_PrefabAsset: {fileID: 0}
--- !u!1001 &7725008160919563464
PrefabInstance:
  m_ObjectHideFlags: 0
  serializedVersion: 2
  m_Modification:
    m_TransformParent: {fileID: 7710638526130617347}
    m_Modifications:
    - target: {fileID: -4216859302048453862, guid: 013845146c1134d83b5917f28d4cbbe5,
        type: 3}
      propertyPath: m_LocalPosition.x
      value: 0
      objectReference: {fileID: 0}
    - target: {fileID: -4216859302048453862, guid: 013845146c1134d83b5917f28d4cbbe5,
        type: 3}
      propertyPath: m_LocalPosition.y
      value: -0
      objectReference: {fileID: 0}
    - target: {fileID: -4216859302048453862, guid: 013845146c1134d83b5917f28d4cbbe5,
        type: 3}
      propertyPath: m_LocalPosition.z
      value: -0.00513
      objectReference: {fileID: 0}
    - target: {fileID: -4216859302048453862, guid: 013845146c1134d83b5917f28d4cbbe5,
        type: 3}
      propertyPath: m_LocalRotation.x
      value: -0
      objectReference: {fileID: 0}
    - target: {fileID: -4216859302048453862, guid: 013845146c1134d83b5917f28d4cbbe5,
        type: 3}
      propertyPath: m_LocalRotation.y
      value: -0
      objectReference: {fileID: 0}
    - target: {fileID: -4216859302048453862, guid: 013845146c1134d83b5917f28d4cbbe5,
        type: 3}
      propertyPath: m_LocalRotation.z
      value: -0
      objectReference: {fileID: 0}
    - target: {fileID: -4216859302048453862, guid: 013845146c1134d83b5917f28d4cbbe5,
        type: 3}
      propertyPath: m_LocalRotation.w
      value: 1
      objectReference: {fileID: 0}
    - target: {fileID: -4216859302048453862, guid: 013845146c1134d83b5917f28d4cbbe5,
        type: 3}
      propertyPath: m_RootOrder
      value: 0
      objectReference: {fileID: 0}
    - target: {fileID: -4216859302048453862, guid: 013845146c1134d83b5917f28d4cbbe5,
        type: 3}
      propertyPath: m_LocalEulerAnglesHint.x
      value: 0
      objectReference: {fileID: 0}
    - target: {fileID: -4216859302048453862, guid: 013845146c1134d83b5917f28d4cbbe5,
        type: 3}
      propertyPath: m_LocalEulerAnglesHint.y
      value: 0
      objectReference: {fileID: 0}
    - target: {fileID: -4216859302048453862, guid: 013845146c1134d83b5917f28d4cbbe5,
        type: 3}
      propertyPath: m_LocalEulerAnglesHint.z
      value: 0
      objectReference: {fileID: 0}
    - target: {fileID: -4216859302048453862, guid: 013845146c1134d83b5917f28d4cbbe5,
        type: 3}
      propertyPath: m_LocalScale.x
      value: 1
      objectReference: {fileID: 0}
    - target: {fileID: -4216859302048453862, guid: 013845146c1134d83b5917f28d4cbbe5,
        type: 3}
      propertyPath: m_LocalScale.y
      value: 1
      objectReference: {fileID: 0}
    - target: {fileID: -4216859302048453862, guid: 013845146c1134d83b5917f28d4cbbe5,
        type: 3}
      propertyPath: m_LocalScale.z
      value: 0
      objectReference: {fileID: 0}
    - target: {fileID: -1504981713932161579, guid: 013845146c1134d83b5917f28d4cbbe5,
        type: 3}
      propertyPath: m_Materials.Array.data[0]
      value: 
      objectReference: {fileID: 2100000, guid: 2c5eccda0143040baa609796c6f690a3, type: 2}
    - target: {fileID: -927199367670048503, guid: 013845146c1134d83b5917f28d4cbbe5,
        type: 3}
      propertyPath: m_Name
      value: Khopesh (1)
      objectReference: {fileID: 0}
    m_RemovedComponents: []
  m_SourcePrefab: {fileID: 100100000, guid: 013845146c1134d83b5917f28d4cbbe5, type: 3}
