%YAML 1.1
%TAG !u! tag:unity3d.com,2011:
--- !u!1 &3842672544355595105
GameObject:
  m_ObjectHideFlags: 0
  m_CorrespondingSourceObject: {fileID: 0}
  m_PrefabInstance: {fileID: 0}
  m_PrefabAsset: {fileID: 0}
  serializedVersion: 6
  m_Component:
  - component: {fileID: 4789767375624866696}
  - component: {fileID: 3335874469029587892}
  m_Layer: 0
  m_Name: Spear
  m_TagString: Untagged
  m_Icon: {fileID: 0}
  m_NavMeshLayer: 0
  m_StaticEditorFlags: 0
  m_IsActive: 1
--- !u!4 &4789767375624866696
Transform:
  m_ObjectHideFlags: 0
  m_CorrespondingSourceObject: {fileID: 0}
  m_PrefabInstance: {fileID: 0}
  m_PrefabAsset: {fileID: 0}
  m_GameObject: {fileID: 3842672544355595105}
  m_LocalRotation: {x: 0, y: 0, z: 0, w: 1}
  m_LocalPosition: {x: 1015.86, y: 720.417, z: 148.20464}
  m_LocalScale: {x: 1, y: 1, z: 1}
  m_Children:
  - {fileID: 7693997612390663829}
  m_Father: {fileID: 0}
  m_RootOrder: 0
  m_LocalEulerAnglesHint: {x: 0, y: 0, z: 0}
--- !u!114 &3335874469029587892
MonoBehaviour:
  m_ObjectHideFlags: 0
  m_CorrespondingSourceObject: {fileID: 0}
  m_PrefabInstance: {fileID: 0}
  m_PrefabAsset: {fileID: 0}
  m_GameObject: {fileID: 3842672544355595105}
  m_Enabled: 1
  m_EditorHideFlags: 0
  m_Script: {fileID: 11500000, guid: 8b7f782d20050f84ba0a271b517b1fbf, type: 3}
  m_Name: 
  m_EditorClassIdentifier: 
  _rotationSpeed: 50
--- !u!1001 &36893771146180907
PrefabInstance:
  m_ObjectHideFlags: 0
  serializedVersion: 2
  m_Modification:
    m_TransformParent: {fileID: 7693997612390663829}
    m_Modifications:
    - target: {fileID: -4216859302048453862, guid: f4e99bdee094a4e9dbe8f0c349a022fa,
        type: 3}
      propertyPath: m_LocalPosition.x
      value: 0
      objectReference: {fileID: 0}
    - target: {fileID: -4216859302048453862, guid: f4e99bdee094a4e9dbe8f0c349a022fa,
        type: 3}
      propertyPath: m_LocalPosition.y
      value: -0
      objectReference: {fileID: 0}
    - target: {fileID: -4216859302048453862, guid: f4e99bdee094a4e9dbe8f0c349a022fa,
        type: 3}
      propertyPath: m_LocalPosition.z
      value: -0.0148
      objectReference: {fileID: 0}
    - target: {fileID: -4216859302048453862, guid: f4e99bdee094a4e9dbe8f0c349a022fa,
        type: 3}
      propertyPath: m_LocalRotation.x
      value: -0
      objectReference: {fileID: 0}
    - target: {fileID: -4216859302048453862, guid: f4e99bdee094a4e9dbe8f0c349a022fa,
        type: 3}
      propertyPath: m_LocalRotation.y
      value: -0
      objectReference: {fileID: 0}
    - target: {fileID: -4216859302048453862, guid: f4e99bdee094a4e9dbe8f0c349a022fa,
        type: 3}
      propertyPath: m_LocalRotation.z
      value: -0
      objectReference: {fileID: 0}
    - target: {fileID: -4216859302048453862, guid: f4e99bdee094a4e9dbe8f0c349a022fa,
        type: 3}
      propertyPath: m_LocalRotation.w
      value: 1
      objectReference: {fileID: 0}
    - target: {fileID: -4216859302048453862, guid: f4e99bdee094a4e9dbe8f0c349a022fa,
        type: 3}
      propertyPath: m_RootOrder
      value: 0
      objectReference: {fileID: 0}
    - target: {fileID: -4216859302048453862, guid: f4e99bdee094a4e9dbe8f0c349a022fa,
        type: 3}
      propertyPath: m_LocalEulerAnglesHint.x
      value: 0
      objectReference: {fileID: 0}
    - target: {fileID: -4216859302048453862, guid: f4e99bdee094a4e9dbe8f0c349a022fa,
        type: 3}
      propertyPath: m_LocalEulerAnglesHint.y
      value: 0
      objectReference: {fileID: 0}
    - target: {fileID: -4216859302048453862, guid: f4e99bdee094a4e9dbe8f0c349a022fa,
        type: 3}
      propertyPath: m_LocalEulerAnglesHint.z
      value: 0
      objectReference: {fileID: 0}
    - target: {fileID: -4216859302048453862, guid: f4e99bdee094a4e9dbe8f0c349a022fa,
        type: 3}
      propertyPath: m_LocalScale.x
      value: 1
      objectReference: {fileID: 0}
    - target: {fileID: -4216859302048453862, guid: f4e99bdee094a4e9dbe8f0c349a022fa,
        type: 3}
      propertyPath: m_LocalScale.y
      value: 1
      objectReference: {fileID: 0}
    - target: {fileID: -4216859302048453862, guid: f4e99bdee094a4e9dbe8f0c349a022fa,
        type: 3}
      propertyPath: m_LocalScale.z
      value: 0
      objectReference: {fileID: 0}
    - target: {fileID: -1504981713932161579, guid: f4e99bdee094a4e9dbe8f0c349a022fa,
        type: 3}
      propertyPath: m_Materials.Array.data[0]
      value: 
      objectReference: {fileID: 2100000, guid: 2c5eccda0143040baa609796c6f690a3, type: 2}
    - target: {fileID: -927199367670048503, guid: f4e99bdee094a4e9dbe8f0c349a022fa,
        type: 3}
      propertyPath: m_Name
      value: Spear (1)
      objectReference: {fileID: 0}
    m_RemovedComponents: []
  m_SourcePrefab: {fileID: 100100000, guid: f4e99bdee094a4e9dbe8f0c349a022fa, type: 3}
--- !u!1001 &3439666954030706063
PrefabInstance:
  m_ObjectHideFlags: 0
  serializedVersion: 2
  m_Modification:
    m_TransformParent: {fileID: 4789767375624866696}
    m_Modifications:
    - target: {fileID: -4216859302048453862, guid: f4e99bdee094a4e9dbe8f0c349a022fa,
        type: 3}
      propertyPath: m_LocalPosition.x
      value: 0
      objectReference: {fileID: 0}
    - target: {fileID: -4216859302048453862, guid: f4e99bdee094a4e9dbe8f0c349a022fa,
        type: 3}
      propertyPath: m_LocalPosition.y
      value: 0
      objectReference: {fileID: 0}
    - target: {fileID: -4216859302048453862, guid: f4e99bdee094a4e9dbe8f0c349a022fa,
        type: 3}
      propertyPath: m_LocalPosition.z
      value: 0
      objectReference: {fileID: 0}
    - target: {fileID: -4216859302048453862, guid: f4e99bdee094a4e9dbe8f0c349a022fa,
        type: 3}
      propertyPath: m_LocalRotation.x
      value: -0.7071068
      objectReference: {fileID: 0}
    - target: {fileID: -4216859302048453862, guid: f4e99bdee094a4e9dbe8f0c349a022fa,
        type: 3}
      propertyPath: m_LocalRotation.y
      value: -0
      objectReference: {fileID: 0}
    - target: {fileID: -4216859302048453862, guid: f4e99bdee094a4e9dbe8f0c349a022fa,
        type: 3}
      propertyPath: m_LocalRotation.z
      value: -0
      objectReference: {fileID: 0}
    - target: {fileID: -4216859302048453862, guid: f4e99bdee094a4e9dbe8f0c349a022fa,
        type: 3}
      propertyPath: m_LocalRotation.w
      value: 0.7071067
      objectReference: {fileID: 0}
    - target: {fileID: -4216859302048453862, guid: f4e99bdee094a4e9dbe8f0c349a022fa,
        type: 3}
      propertyPath: m_RootOrder
      value: 0
      objectReference: {fileID: 0}
    - target: {fileID: -4216859302048453862, guid: f4e99bdee094a4e9dbe8f0c349a022fa,
        type: 3}
      propertyPath: m_LocalEulerAnglesHint.x
      value: 0
      objectReference: {fileID: 0}
    - target: {fileID: -4216859302048453862, guid: f4e99bdee094a4e9dbe8f0c349a022fa,
        type: 3}
      propertyPath: m_LocalEulerAnglesHint.y
      value: 0
      objectReference: {fileID: 0}
    - target: {fileID: -4216859302048453862, guid: f4e99bdee094a4e9dbe8f0c349a022fa,
        type: 3}
      propertyPath: m_LocalEulerAnglesHint.z
      value: 0
      objectReference: {fileID: 0}
    - target: {fileID: -4216859302048453862, guid: f4e99bdee094a4e9dbe8f0c349a022fa,
        type: 3}
      propertyPath: m_LocalScale.x
      value: 50
      objectReference: {fileID: 0}
    - target: {fileID: -4216859302048453862, guid: f4e99bdee094a4e9dbe8f0c349a022fa,
        type: 3}
      propertyPath: m_LocalScale.y
      value: 50
      objectReference: {fileID: 0}
    - target: {fileID: -4216859302048453862, guid: f4e99bdee094a4e9dbe8f0c349a022fa,
        type: 3}
      propertyPath: m_LocalScale.z
      value: 50
      objectReference: {fileID: 0}
    - target: {fileID: -1504981713932161579, guid: f4e99bdee094a4e9dbe8f0c349a022fa,
        type: 3}
      propertyPath: m_Materials.Array.data[0]
      value: 
      objectReference: {fileID: 2100000, guid: f1e13816bbd63455282cd0a3c7a8f2e4, type: 2}
    - target: {fileID: -927199367670048503, guid: f4e99bdee094a4e9dbe8f0c349a022fa,
        type: 3}
      propertyPath: m_Name
      value: Spear
      objectReference: {fileID: 0}
    m_RemovedComponents: []
  m_SourcePrefab: {fileID: 100100000, guid: f4e99bdee094a4e9dbe8f0c349a022fa, type: 3}
--- !u!4 &7693997612390663829 stripped
Transform:
  m_CorrespondingSourceObject: {fileID: -4216859302048453862, guid: f4e99bdee094a4e9dbe8f0c349a022fa,
    type: 3}
  m_PrefabInstance: {fileID: 3439666954030706063}
  m_PrefabAsset: {fileID: 0}
