%YAML 1.1
%TAG !u! tag:unity3d.com,2011:
--- !u!1 &1597888502467000801
GameObject:
  m_ObjectHideFlags: 0
  m_CorrespondingSourceObject: {fileID: 0}
  m_PrefabInstance: {fileID: 0}
  m_PrefabAsset: {fileID: 0}
  serializedVersion: 6
  m_Component:
  - component: {fileID: 8970392081307042888}
  - component: {fileID: 7975247626361687987}
  m_Layer: 0
  m_Name: Vorpal Blade
  m_TagString: Untagged
  m_Icon: {fileID: 0}
  m_NavMeshLayer: 0
  m_StaticEditorFlags: 0
  m_IsActive: 1
--- !u!4 &8970392081307042888
Transform:
  m_ObjectHideFlags: 0
  m_CorrespondingSourceObject: {fileID: 0}
  m_PrefabInstance: {fileID: 0}
  m_PrefabAsset: {fileID: 0}
  m_GameObject: {fileID: 1597888502467000801}
  m_LocalRotation: {x: 0, y: 0, z: 0, w: 1}
  m_LocalPosition: {x: 1019.745, y: 719.555, z: 123.603}
  m_LocalScale: {x: 1, y: 1, z: 1}
  m_Children:
  - {fileID: 3632326344588884149}
  m_Father: {fileID: 0}
  m_RootOrder: 0
  m_LocalEulerAnglesHint: {x: 0, y: 0, z: 0}
--- !u!114 &7975247626361687987
MonoBehaviour:
  m_ObjectHideFlags: 0
  m_CorrespondingSourceObject: {fileID: 0}
  m_PrefabInstance: {fileID: 0}
  m_PrefabAsset: {fileID: 0}
  m_GameObject: {fileID: 1597888502467000801}
  m_Enabled: 1
  m_EditorHideFlags: 0
  m_Script: {fileID: 11500000, guid: 8b7f782d20050f84ba0a271b517b1fbf, type: 3}
  m_Name: 
  m_EditorClassIdentifier: 
  _rotationSpeed: 50
--- !u!1001 &8579965724940489647
PrefabInstance:
  m_ObjectHideFlags: 0
  serializedVersion: 2
  m_Modification:
    m_TransformParent: {fileID: 8970392081307042888}
    m_Modifications:
    - target: {fileID: -4216859302048453862, guid: bc098061b19424d3ba35d427ac2cebf0,
        type: 3}
      propertyPath: m_LocalPosition.x
      value: 0
      objectReference: {fileID: 0}
    - target: {fileID: -4216859302048453862, guid: bc098061b19424d3ba35d427ac2cebf0,
        type: 3}
      propertyPath: m_LocalPosition.y
      value: 0
      objectReference: {fileID: 0}
    - target: {fileID: -4216859302048453862, guid: bc098061b19424d3ba35d427ac2cebf0,
        type: 3}
      propertyPath: m_LocalPosition.z
      value: 0
      objectReference: {fileID: 0}
    - target: {fileID: -4216859302048453862, guid: bc098061b19424d3ba35d427ac2cebf0,
        type: 3}
      propertyPath: m_LocalRotation.x
      value: -0.7071068
      objectReference: {fileID: 0}
    - target: {fileID: -4216859302048453862, guid: bc098061b19424d3ba35d427ac2cebf0,
        type: 3}
      propertyPath: m_LocalRotation.y
      value: -0
      objectReference: {fileID: 0}
    - target: {fileID: -4216859302048453862, guid: bc098061b19424d3ba35d427ac2cebf0,
        type: 3}
      propertyPath: m_LocalRotation.z
      value: -0
      objectReference: {fileID: 0}
    - target: {fileID: -4216859302048453862, guid: bc098061b19424d3ba35d427ac2cebf0,
        type: 3}
      propertyPath: m_LocalRotation.w
      value: 0.7071067
      objectReference: {fileID: 0}
    - target: {fileID: -4216859302048453862, guid: bc098061b19424d3ba35d427ac2cebf0,
        type: 3}
      propertyPath: m_RootOrder
      value: 0
      objectReference: {fileID: 0}
    - target: {fileID: -4216859302048453862, guid: bc098061b19424d3ba35d427ac2cebf0,
        type: 3}
      propertyPath: m_LocalEulerAnglesHint.x
      value: 0
      objectReference: {fileID: 0}
    - target: {fileID: -4216859302048453862, guid: bc098061b19424d3ba35d427ac2cebf0,
        type: 3}
      propertyPath: m_LocalEulerAnglesHint.y
      value: 0
      objectReference: {fileID: 0}
    - target: {fileID: -4216859302048453862, guid: bc098061b19424d3ba35d427ac2cebf0,
        type: 3}
      propertyPath: m_LocalEulerAnglesHint.z
      value: 0
      objectReference: {fileID: 0}
    - target: {fileID: -4216859302048453862, guid: bc098061b19424d3ba35d427ac2cebf0,
        type: 3}
      propertyPath: m_LocalScale.x
      value: 47.73
      objectReference: {fileID: 0}
    - target: {fileID: -4216859302048453862, guid: bc098061b19424d3ba35d427ac2cebf0,
        type: 3}
      propertyPath: m_LocalScale.y
      value: 47.729996
      objectReference: {fileID: 0}
    - target: {fileID: -4216859302048453862, guid: bc098061b19424d3ba35d427ac2cebf0,
        type: 3}
      propertyPath: m_LocalScale.z
      value: 47.729996
      objectReference: {fileID: 0}
    - target: {fileID: -1504981713932161579, guid: bc098061b19424d3ba35d427ac2cebf0,
        type: 3}
      propertyPath: m_Materials.Array.data[0]
      value: 
      objectReference: {fileID: 2100000, guid: 1f26cd5ce412a48b78fbbf2b0385d383, type: 2}
    - target: {fileID: -927199367670048503, guid: bc098061b19424d3ba35d427ac2cebf0,
        type: 3}
      propertyPath: m_Name
      value: Vorpal Blade
      objectReference: {fileID: 0}
    m_RemovedComponents: []
  m_SourcePrefab: {fileID: 100100000, guid: bc098061b19424d3ba35d427ac2cebf0, type: 3}
--- !u!4 &3632326344588884149 stripped
Transform:
  m_CorrespondingSourceObject: {fileID: -4216859302048453862, guid: bc098061b19424d3ba35d427ac2cebf0,
    type: 3}
  m_PrefabInstance: {fileID: 8579965724940489647}
  m_PrefabAsset: {fileID: 0}
--- !u!1001 &8660423859135207589
PrefabInstance:
  m_ObjectHideFlags: 0
  serializedVersion: 2
  m_Modification:
    m_TransformParent: {fileID: 3632326344588884149}
    m_Modifications:
    - target: {fileID: -4216859302048453862, guid: bc098061b19424d3ba35d427ac2cebf0,
        type: 3}
      propertyPath: m_LocalPosition.x
      value: 0
      objectReference: {fileID: 0}
    - target: {fileID: -4216859302048453862, guid: bc098061b19424d3ba35d427ac2cebf0,
        type: 3}
      propertyPath: m_LocalPosition.y
      value: 0
      objectReference: {fileID: 0}
    - target: {fileID: -4216859302048453862, guid: bc098061b19424d3ba35d427ac2cebf0,
        type: 3}
      propertyPath: m_LocalPosition.z
      value: -0.003345233
      objectReference: {fileID: 0}
    - target: {fileID: -4216859302048453862, guid: bc098061b19424d3ba35d427ac2cebf0,
        type: 3}
      propertyPath: m_LocalRotation.x
      value: -0
      objectReference: {fileID: 0}
    - target: {fileID: -4216859302048453862, guid: bc098061b19424d3ba35d427ac2cebf0,
        type: 3}
      propertyPath: m_LocalRotation.y
      value: -0
      objectReference: {fileID: 0}
    - target: {fileID: -4216859302048453862, guid: bc098061b19424d3ba35d427ac2cebf0,
        type: 3}
      propertyPath: m_LocalRotation.z
      value: -0
      objectReference: {fileID: 0}
    - target: {fileID: -4216859302048453862, guid: bc098061b19424d3ba35d427ac2cebf0,
        type: 3}
      propertyPath: m_LocalRotation.w
      value: 1
      objectReference: {fileID: 0}
    - target: {fileID: -4216859302048453862, guid: bc098061b19424d3ba35d427ac2cebf0,
        type: 3}
      propertyPath: m_RootOrder
      value: 0
      objectReference: {fileID: 0}
    - target: {fileID: -4216859302048453862, guid: bc098061b19424d3ba35d427ac2cebf0,
        type: 3}
      propertyPath: m_LocalEulerAnglesHint.x
      value: 0
      objectReference: {fileID: 0}
    - target: {fileID: -4216859302048453862, guid: bc098061b19424d3ba35d427ac2cebf0,
        type: 3}
      propertyPath: m_LocalEulerAnglesHint.y
      value: 0
      objectReference: {fileID: 0}
    - target: {fileID: -4216859302048453862, guid: bc098061b19424d3ba35d427ac2cebf0,
        type: 3}
      propertyPath: m_LocalEulerAnglesHint.z
      value: 0
      objectReference: {fileID: 0}
    - target: {fileID: -4216859302048453862, guid: bc098061b19424d3ba35d427ac2cebf0,
        type: 3}
      propertyPath: m_LocalScale.x
      value: 1
      objectReference: {fileID: 0}
    - target: {fileID: -4216859302048453862, guid: bc098061b19424d3ba35d427ac2cebf0,
        type: 3}
      propertyPath: m_LocalScale.y
      value: 1
      objectReference: {fileID: 0}
    - target: {fileID: -4216859302048453862, guid: bc098061b19424d3ba35d427ac2cebf0,
        type: 3}
      propertyPath: m_LocalScale.z
      value: 0
      objectReference: {fileID: 0}
    - target: {fileID: -1504981713932161579, guid: bc098061b19424d3ba35d427ac2cebf0,
        type: 3}
      propertyPath: m_Materials.Array.data[0]
      value: 
      objectReference: {fileID: 2100000, guid: 2c5eccda0143040baa609796c6f690a3, type: 2}
    - target: {fileID: -927199367670048503, guid: bc098061b19424d3ba35d427ac2cebf0,
        type: 3}
      propertyPath: m_Name
      value: Vorpal Blade (1)
      objectReference: {fileID: 0}
    m_RemovedComponents: []
  m_SourcePrefab: {fileID: 100100000, guid: bc098061b19424d3ba35d427ac2cebf0, type: 3}
