%YAML 1.1
%TAG !u! tag:unity3d.com,2011:
--- !u!74 &7400000
AnimationClip:
  m_ObjectHideFlags: 0
  m_CorrespondingSourceObject: {fileID: 0}
  m_PrefabInstance: {fileID: 0}
  m_PrefabAsset: {fileID: 0}
  m_Name: Fire
  serializedVersion: 6
  m_Legacy: 0
  m_Compressed: 0
  m_UseHighQualityCurve: 1
  m_RotationCurves: []
  m_CompressedRotationCurves: []
  m_EulerCurves: []
  m_PositionCurves: []
  m_ScaleCurves: []
  m_FloatCurves: []
  m_PPtrCurves:
  - curve:
    - time: 0
      value: {fileID: 21300000, guid: 7a13c076196f7441d90a30e75994af3c, type: 3}
    - time: 0.083333336
      value: {fileID: 21300000, guid: a8ae17693b65d4d61a2a59d28a1c62ad, type: 3}
    - time: 0.16666667
      value: {fileID: 21300000, guid: 2fb901463e1a44f4fb687ba35af3b26d, type: 3}
    - time: 0.25
      value: {fileID: 21300000, guid: 395800da43b6f490e8b6122633961373, type: 3}
    - time: 0.33333334
      value: {fileID: 21300000, guid: 2ceef7092e0db4965b5f84264d86766c, type: 3}
    - time: 0.41666666
      value: {fileID: 21300000, guid: 654f7538023024e01be02eba847fc243, type: 3}
    - time: 0.5
      value: {fileID: 21300000, guid: 495c42141f4e441edb0b5c4fdee7b2db, type: 3}
    - time: 0.5833333
      value: {fileID: 21300000, guid: e99de8b051af345b79e7b681397861eb, type: 3}
    - time: 0.6666667
      value: {fileID: 21300000, guid: a4f0d37098d9c49cfb3dcc022dd64322, type: 3}
    - time: 0.75
      value: {fileID: 21300000, guid: cfc6757819954473cafb653d5ac5ad8b, type: 3}
    - time: 0.8333333
      value: {fileID: 21300000, guid: c9178561cf5b4465084eca7d340abaa1, type: 3}
    - time: 0.9166667
      value: {fileID: 21300000, guid: f447c6234f3ea4c4b9b85b40eea24cc0, type: 3}
    - time: 1
      value: {fileID: 21300000, guid: 306c01f8fd2dd4a40bf1354945ca9e05, type: 3}
    - time: 1.0833334
      value: {fileID: 21300000, guid: 8ca3e8b34494f4e20aa52fcecf6b9b06, type: 3}
    - time: 1.1666666
      value: {fileID: 21300000, guid: 1f422d7e275414bb795dbe336c141aff, type: 3}
    - time: 1.25
      value: {fileID: 21300000, guid: 92ab58df70f4043daae5ef382a30b45a, type: 3}
    - time: 1.3333334
      value: {fileID: 21300000, guid: 754e703fb7d6b46a1b691dfc40602007, type: 3}
    attribute: m_Sprite
    path: 
    classID: 212
    script: {fileID: 0}
  m_SampleRate: 12
  m_WrapMode: 0
  m_Bounds:
    m_Center: {x: 0, y: 0, z: 0}
    m_Extent: {x: 0, y: 0, z: 0}
  m_ClipBindingConstant:
    genericBindings:
    - serializedVersion: 2
      path: 0
      attribute: 0
      script: {fileID: 0}
      typeID: 212
      customType: 23
      isPPtrCurve: 1
    pptrCurveMapping:
    - {fileID: 21300000, guid: 7a13c076196f7441d90a30e75994af3c, type: 3}
    - {fileID: 21300000, guid: a8ae17693b65d4d61a2a59d28a1c62ad, type: 3}
    - {fileID: 21300000, guid: 2fb901463e1a44f4fb687ba35af3b26d, type: 3}
    - {fileID: 21300000, guid: 395800da43b6f490e8b6122633961373, type: 3}
    - {fileID: 21300000, guid: 2ceef7092e0db4965b5f84264d86766c, type: 3}
    - {fileID: 21300000, guid: 654f7538023024e01be02eba847fc243, type: 3}
    - {fileID: 21300000, guid: 495c42141f4e441edb0b5c4fdee7b2db, type: 3}
    - {fileID: 21300000, guid: e99de8b051af345b79e7b681397861eb, type: 3}
    - {fileID: 21300000, guid: a4f0d37098d9c49cfb3dcc022dd64322, type: 3}
    - {fileID: 21300000, guid: cfc6757819954473cafb653d5ac5ad8b, type: 3}
    - {fileID: 21300000, guid: c9178561cf5b4465084eca7d340abaa1, type: 3}
    - {fileID: 21300000, guid: f447c6234f3ea4c4b9b85b40eea24cc0, type: 3}
    - {fileID: 21300000, guid: 306c01f8fd2dd4a40bf1354945ca9e05, type: 3}
    - {fileID: 21300000, guid: 8ca3e8b34494f4e20aa52fcecf6b9b06, type: 3}
    - {fileID: 21300000, guid: 1f422d7e275414bb795dbe336c141aff, type: 3}
    - {fileID: 21300000, guid: 92ab58df70f4043daae5ef382a30b45a, type: 3}
    - {fileID: 21300000, guid: 754e703fb7d6b46a1b691dfc40602007, type: 3}
  m_AnimationClipSettings:
    serializedVersion: 2
    m_AdditiveReferencePoseClip: {fileID: 0}
    m_AdditiveReferencePoseTime: 0
    m_StartTime: 0
    m_StopTime: 1.4166667
    m_OrientationOffsetY: 0
    m_Level: 0
    m_CycleOffset: 0
    m_HasAdditiveReferencePose: 0
    m_LoopTime: 1
    m_LoopBlend: 0
    m_LoopBlendOrientation: 0
    m_LoopBlendPositionY: 0
    m_LoopBlendPositionXZ: 0
    m_KeepOriginalOrientation: 0
    m_KeepOriginalPositionY: 1
    m_KeepOriginalPositionXZ: 0
    m_HeightFromFeet: 0
    m_Mirror: 0
  m_EditorCurves: []
  m_EulerEditorCurves: []
  m_HasGenericRootTransform: 0
  m_HasMotionFloatCurves: 0
  m_Events: []
