%YAML 1.1
%TAG !u! tag:unity3d.com,2011:
--- !u!1 &4514842280215554594
GameObject:
  m_ObjectHideFlags: 0
  m_CorrespondingSourceObject: {fileID: 0}
  m_PrefabInstance: {fileID: 0}
  m_PrefabAsset: {fileID: 0}
  serializedVersion: 6
  m_Component:
  - component: {fileID: 647578242269534257}
  m_Layer: 0
  m_Name: DistractPreview
  m_TagString: Untagged
  m_Icon: {fileID: 0}
  m_NavMeshLayer: 0
  m_StaticEditorFlags: 0
  m_IsActive: 1
--- !u!4 &647578242269534257
Transform:
  m_ObjectHideFlags: 0
  m_CorrespondingSourceObject: {fileID: 0}
  m_PrefabInstance: {fileID: 0}
  m_PrefabAsset: {fileID: 0}
  m_GameObject: {fileID: 4514842280215554594}
  m_LocalRotation: {x: -0.59292156, y: -0.3852844, z: 0.3852844, w: 0.5929215}
  m_LocalPosition: {x: -130.11, y: 12.562999, z: -57.044}
  m_LocalScale: {x: 10.827512, y: 18.888453, z: 10.827513}
  m_Children:
  - {fileID: 1638859971706349121}
  m_Father: {fileID: 0}
  m_RootOrder: 0
  m_LocalEulerAnglesHint: {x: 0, y: 0, z: 0}
--- !u!1001 &6036181090776927579
PrefabInstance:
  m_ObjectHideFlags: 0
  serializedVersion: 2
  m_Modification:
    m_TransformParent: {fileID: 647578242269534257}
    m_Modifications:
    - target: {fileID: -4216859302048453862, guid: ddf57d06a8820274697678c1810cfec6,
        type: 3}
      propertyPath: m_LocalPosition.x
      value: 0.0246
      objectReference: {fileID: 0}
    - target: {fileID: -4216859302048453862, guid: ddf57d06a8820274697678c1810cfec6,
        type: 3}
      propertyPath: m_LocalPosition.y
      value: -0
      objectReference: {fileID: 0}
    - target: {fileID: -4216859302048453862, guid: ddf57d06a8820274697678c1810cfec6,
        type: 3}
      propertyPath: m_LocalPosition.z
      value: 0
      objectReference: {fileID: 0}
    - target: {fileID: -4216859302048453862, guid: ddf57d06a8820274697678c1810cfec6,
        type: 3}
      propertyPath: m_LocalRotation.x
      value: -0
      objectReference: {fileID: 0}
    - target: {fileID: -4216859302048453862, guid: ddf57d06a8820274697678c1810cfec6,
        type: 3}
      propertyPath: m_LocalRotation.y
      value: -0
      objectReference: {fileID: 0}
    - target: {fileID: -4216859302048453862, guid: ddf57d06a8820274697678c1810cfec6,
        type: 3}
      propertyPath: m_LocalRotation.z
      value: -0
      objectReference: {fileID: 0}
    - target: {fileID: -4216859302048453862, guid: ddf57d06a8820274697678c1810cfec6,
        type: 3}
      propertyPath: m_LocalRotation.w
      value: 1
      objectReference: {fileID: 0}
    - target: {fileID: -4216859302048453862, guid: ddf57d06a8820274697678c1810cfec6,
        type: 3}
      propertyPath: m_RootOrder
      value: 0
      objectReference: {fileID: 0}
    - target: {fileID: -4216859302048453862, guid: ddf57d06a8820274697678c1810cfec6,
        type: 3}
      propertyPath: m_LocalEulerAnglesHint.x
      value: 0
      objectReference: {fileID: 0}
    - target: {fileID: -4216859302048453862, guid: ddf57d06a8820274697678c1810cfec6,
        type: 3}
      propertyPath: m_LocalEulerAnglesHint.y
      value: 0
      objectReference: {fileID: 0}
    - target: {fileID: -4216859302048453862, guid: ddf57d06a8820274697678c1810cfec6,
        type: 3}
      propertyPath: m_LocalEulerAnglesHint.z
      value: 0
      objectReference: {fileID: 0}
    - target: {fileID: -4216859302048453862, guid: ddf57d06a8820274697678c1810cfec6,
        type: 3}
      propertyPath: m_LocalScale.x
      value: 1
      objectReference: {fileID: 0}
    - target: {fileID: -4216859302048453862, guid: ddf57d06a8820274697678c1810cfec6,
        type: 3}
      propertyPath: m_LocalScale.y
      value: 1
      objectReference: {fileID: 0}
    - target: {fileID: -4216859302048453862, guid: ddf57d06a8820274697678c1810cfec6,
        type: 3}
      propertyPath: m_LocalScale.z
      value: 1
      objectReference: {fileID: 0}
    - target: {fileID: -1504981713932161579, guid: ddf57d06a8820274697678c1810cfec6,
        type: 3}
      propertyPath: m_Materials.Array.data[0]
      value: 
      objectReference: {fileID: 2100000, guid: f3e645fe73a8d254b991dc6e05649252, type: 2}
    - target: {fileID: -927199367670048503, guid: ddf57d06a8820274697678c1810cfec6,
        type: 3}
      propertyPath: m_Name
      value: Chicken
      objectReference: {fileID: 0}
    m_RemovedComponents: []
  m_SourcePrefab: {fileID: 100100000, guid: ddf57d06a8820274697678c1810cfec6, type: 3}
--- !u!4 &1638859971706349121 stripped
Transform:
  m_CorrespondingSourceObject: {fileID: -4216859302048453862, guid: ddf57d06a8820274697678c1810cfec6,
    type: 3}
  m_PrefabInstance: {fileID: 6036181090776927579}
  m_PrefabAsset: {fileID: 0}
