%YAML 1.1
%TAG !u! tag:unity3d.com,2011:
--- !u!1045 &1
EditorBuildSettings:
  m_ObjectHideFlags: 0
  serializedVersion: 2
  m_Scenes:
  - enabled: 0
    path: Assets/Scenes/OldBuild/MainMenu.unity
    guid: 683d5aaa57046fe47b3723e1bb065318
  - enabled: 0
    path: Assets/Scenes/OldBuild/Intro.unity
    guid: c09cd37fb72dc3b4590440a10306a66a
  - enabled: 0
    path: Assets/Scenes/OldBuild/Tutorial.unity
    guid: 613f89cfb37094bdeb77e00e50af5d99
  - enabled: 0
    path: Assets/Scenes/OldBuild/NecromancerInfluence1.unity
    guid: f4e137b7c48ad0d4697929444444cd82
  - enabled: 0
    path: Assets/Scenes/OldBuild/Halfling_Level_1.unity
    guid: 7a15c23c9e59b4f718f565582df69596
  - enabled: 0
    path: Assets/Scenes/OldBuild/NecromancerInfluence2.unity
    guid: d0b758efced7b204284b08c3d1cc7604
  - enabled: 0
    path: Assets/Scenes/OldBuild/SaveRoom.unity
    guid: f06ebd4381b264ce1b8e96cdbe39280b
  - enabled: 0
    path: Assets/Scenes/OldBuild/#1.unity
    guid: 0eac5a769068746eb969d0b31e72cc60
  - enabled: 1
    path: Assets/Scenes/Dioramas/Intro(Dioramas).unity
    guid: f814e44e84e0f4753ab5bc7eda983a5a
  - enabled: 1
    path: Assets/Scenes/CurrentBuild/Oasis.unity
    guid: 006b2a808722a42669f330c0442c9df9
  - enabled: 1
    path: Assets/Scenes/CurrentBuild/Saveroom.unity
    guid: 903f3b2d7a23144d38dc1cdffb256a1c
  - enabled: 1
    path: Assets/Scenes/CurrentBuild/FloodedCaveCorrupted.unity
    guid: 35bc9b300dbea4af99d49032abcecb6d
  - enabled: 1
    path: Assets/Scenes/CurrentBuild/FloodedCaveCleansed.unity
    guid: 31a87b25c0050401e8c9422e3ec0c50a
  - enabled: 0
    path: Assets/Scenes/Dioramas/Diorama_Flooded Cave_Ruins.unity
    guid: 7c843cb57300b40bd8304aef2c12bcd1
  - enabled: 1
    path: Assets/Scenes/CurrentBuild/Graveyard.unity
    guid: 5f31b73e885404f998e76f256b42265d
  - enabled: 1
    path: Assets/Scenes/CurrentBuild/DeepWater.unity
    guid: dd730436dc0494079bbb679d7852d1a7
  - enabled: 1
    path: Assets/Scenes/CurrentBuild/SwordCavern.unity
    guid: 51e9dabdce34a48bdbd4a52d215c3b36
  - enabled: 1
    path: Assets/Scenes/Dioramas/Diorama_Abyss.unity
    guid: 587f7a5c16e5747dc8e67009100b56dd
  - enabled: 1
    path: Assets/Scenes/CurrentBuild/Forest.unity
    guid: 96edeec18ca5a431590d7eb409400d02
  - enabled: 1
    path: Assets/Scenes/OldBuild/TempEnding.unity
    guid: 47892e7ed85ca474d9ecbf6cd1c6245f
  - enabled: 0
    path: Assets/Scenes/Dioramas/Diorama_Weapons.unity
    guid: 6d59f42345923429b9b5f7302e5ecbf9
  - enabled: 1
    path: Assets/Scenes/CurrentBuild/Overgrown.unity
    guid: ad42856f81a3a4e6991357d4678582ed
  m_configObjects: {}
